<?xml version="1.0" encoding="utf-8"?>
<!-- Generator: Adobe Illustrator 16.0.0, SVG Export Plug-In . SVG Version: 6.00 Build 0)  -->
<!DOCTYPE svg PUBLIC "-//W3C//DTD SVG 1.1//EN" "http://www.w3.org/Graphics/SVG/1.1/DTD/svg11.dtd">
<svg version="1.1" id="Layer_1" xmlns="http://www.w3.org/2000/svg" xmlns:xlink="http://www.w3.org/1999/xlink" x="0px" y="0px"
	 width="229px" height="51px" viewBox="0 0 229 51" enable-background="new 0 0 229 51" xml:space="preserve">
<g>
	<path fill="#FFFFFF" d="M0,3c0-1.657,1.343-3,3-3h223c1.656,0,3,1.343,3,3v45c0,1.656-1.344,3-3,3H3c-1.657,0-3-1.344-3-3V3z"/>
	<path fill="#FFC107" d="M83.439,23.715H82.5v-0.048H72v4.667h6.594C77.631,31.05,75.046,33,72,33c-3.866,0-7-3.135-7-7
		c0-3.866,3.134-7,7-7c1.785,0,3.408,0.673,4.644,1.773l3.3-3.301c-2.083-1.94-4.871-3.139-7.944-3.139
		c-6.443,0-11.667,5.225-11.667,11.667S65.557,37.667,72,37.667S83.666,32.443,83.666,26C83.666,25.218,83.586,24.454,83.439,23.715
		z"/>
	<path fill="#FF3D00" d="M61.679,20.57l3.833,2.811C66.549,20.813,69.061,19,72,19c1.785,0,3.408,0.673,4.644,1.773l3.3-3.301
		c-2.083-1.94-4.871-3.139-7.944-3.139C67.519,14.333,63.633,16.863,61.679,20.57z"/>
	<path fill="#4CAF50" d="M72,37.666c3.014,0,5.751-1.152,7.822-3.027l-3.611-3.057C75,32.504,73.521,33.001,72,33
		c-3.035,0-5.611-1.936-6.582-4.635l-3.805,2.931C63.544,35.074,67.465,37.666,72,37.666z"/>
	<path fill="#1976D2" d="M83.44,23.715H82.5v-0.048H72v4.667h6.593c-0.46,1.292-1.289,2.422-2.384,3.249l0.001-0.001l3.611,3.055
		c-0.255,0.232,3.845-2.803,3.845-8.637C83.667,25.218,83.586,24.454,83.44,23.715z"/>
	<path fill="#4F4F4F" d="M109.561,23.1c-0.36-0.692-0.86-1.213-1.5-1.56C107.42,21.18,106.68,21,105.84,21
		c-0.92,0-1.74,0.207-2.46,0.62s-1.287,1-1.7,1.76c-0.4,0.761-0.6,1.64-0.6,2.64s0.199,1.888,0.6,2.66
		c0.413,0.76,0.98,1.348,1.7,1.76c0.72,0.414,1.54,0.621,2.46,0.621c1.24,0,2.247-0.348,3.02-1.041
		c0.773-0.692,1.248-1.633,1.42-2.818h-5.219v-1.82h7.66v1.78c-0.148,1.08-0.533,2.073-1.16,2.979
		c-0.613,0.906-1.42,1.633-2.42,2.18c-0.988,0.533-2.088,0.801-3.301,0.801c-1.307,0-2.5-0.301-3.58-0.9
		c-1.08-0.613-1.939-1.46-2.58-2.539c-0.627-1.08-0.939-2.301-0.939-3.66s0.313-2.58,0.939-3.66c0.641-1.08,1.5-1.92,2.58-2.521
		c1.094-0.612,2.287-0.92,3.58-0.92c1.48,0,2.793,0.367,3.939,1.101c1.16,0.72,2,1.746,2.521,3.08h-2.739V23.1z M119.749,33.18
		c-1.04,0-1.979-0.231-2.819-0.699c-0.841-0.479-1.5-1.146-1.979-2c-0.479-0.866-0.72-1.866-0.72-3c0-1.121,0.246-2.113,0.74-2.979
		c0.492-0.867,1.166-1.533,2.018-2c0.854-0.467,1.808-0.7,2.861-0.7c1.053,0,2.006,0.233,2.859,0.7s1.525,1.133,2.02,2
		c0.496,0.867,0.74,1.858,0.74,2.979c0,1.119-0.254,2.113-0.76,2.979c-0.507,0.866-1.2,1.54-2.08,2.021
		C121.762,32.947,120.803,33.18,119.749,33.18z M119.749,31.2c0.586,0,1.133-0.14,1.64-0.42c0.521-0.28,0.94-0.7,1.26-1.261
		c0.32-0.561,0.48-1.239,0.48-2.039c0-0.801-0.154-1.475-0.46-2.021c-0.308-0.561-0.714-0.98-1.22-1.26
		c-0.508-0.28-1.055-0.42-1.641-0.42s-1.135,0.14-1.641,0.42c-0.494,0.279-0.887,0.699-1.182,1.26
		c-0.293,0.547-0.438,1.221-0.438,2.021c0,1.186,0.302,2.105,0.899,2.76C118.063,30.88,118.829,31.2,119.749,31.2z M132.503,33.18
		c-1.04,0-1.979-0.231-2.819-0.699c-0.841-0.479-1.5-1.146-1.979-2c-0.479-0.866-0.722-1.866-0.722-3
		c0-1.121,0.246-2.113,0.74-2.979c0.493-0.867,1.166-1.533,2.021-2c0.854-0.467,1.806-0.7,2.859-0.7s2.006,0.233,2.859,0.7
		s1.525,1.133,2.02,2c0.496,0.867,0.74,1.858,0.74,2.979c0,1.119-0.254,2.113-0.76,2.979c-0.507,0.866-1.199,1.54-2.08,2.021
		C134.516,32.947,133.557,33.18,132.503,33.18z M132.503,31.2c0.586,0,1.134-0.14,1.64-0.42c0.521-0.28,0.94-0.7,1.26-1.261
		c0.32-0.561,0.48-1.239,0.48-2.039c0-0.801-0.154-1.475-0.46-2.021c-0.307-0.561-0.714-0.98-1.22-1.26
		c-0.508-0.28-1.055-0.42-1.641-0.42s-1.133,0.14-1.641,0.42c-0.492,0.279-0.887,0.699-1.18,1.26
		c-0.295,0.547-0.44,1.221-0.44,2.021c0,1.186,0.302,2.105,0.9,2.76C130.816,30.88,131.583,31.2,132.503,31.2z M144.917,21.8
		c0.853,0,1.606,0.173,2.261,0.521c0.665,0.332,1.186,0.753,1.559,1.26v-1.6h2.302V33.18c0,1.014-0.215,1.914-0.642,2.7
		c-0.426,0.8-1.047,1.427-1.858,1.88c-0.802,0.453-1.761,0.68-2.88,0.68c-1.494,0-2.734-0.353-3.721-1.06
		c-0.986-0.692-1.547-1.64-1.681-2.84h2.261c0.172,0.573,0.539,1.033,1.101,1.38c0.571,0.36,1.253,0.54,2.04,0.54
		c0.92,0,1.658-0.28,2.22-0.84c0.573-0.56,0.858-1.374,0.858-2.44v-1.84c-0.387,0.52-0.914,0.96-1.578,1.32
		c-0.654,0.347-1.4,0.52-2.24,0.52c-0.96,0-1.84-0.24-2.641-0.72c-0.786-0.493-1.414-1.173-1.881-2.04
		c-0.453-0.88-0.68-1.873-0.68-2.98c0-1.104,0.227-2.086,0.68-2.938c0.467-0.854,1.095-1.513,1.881-1.979
		C143.077,22.04,143.957,21.8,144.917,21.8z M148.736,27.48c0-0.762-0.159-1.42-0.479-1.98c-0.307-0.561-0.714-0.986-1.22-1.28
		c-0.508-0.293-1.055-0.438-1.641-0.438s-1.133,0.146-1.641,0.438c-0.507,0.28-0.92,0.7-1.238,1.261
		c-0.309,0.547-0.461,1.199-0.461,1.959c0,0.761,0.152,1.428,0.461,2c0.318,0.574,0.731,1.014,1.238,1.319
		c0.521,0.293,1.064,0.44,1.641,0.44c0.586,0,1.133-0.147,1.641-0.44c0.506-0.293,0.913-0.72,1.22-1.278
		C148.577,28.906,148.736,28.24,148.736,27.48z M156.311,18.2V33h-2.278V18.2H156.311z M169.404,27.22
		c0,0.413-0.026,0.787-0.079,1.12h-8.421c0.066,0.88,0.394,1.587,0.979,2.12c0.587,0.533,1.308,0.8,2.16,0.8
		c1.228,0,2.095-0.514,2.601-1.54h2.461c-0.334,1.015-0.94,1.847-1.82,2.5c-0.867,0.64-1.947,0.96-3.24,0.96
		c-1.054,0-2-0.231-2.84-0.699c-0.827-0.479-1.48-1.146-1.96-2c-0.468-0.866-0.7-1.866-0.7-3c0-1.133,0.227-2.127,0.68-2.979
		c0.467-0.867,1.113-1.533,1.94-2c0.84-0.467,1.8-0.7,2.88-0.7c1.04,0,1.967,0.227,2.78,0.68s1.446,1.094,1.899,1.92
		C169.178,25.213,169.404,26.152,169.404,27.22z M167.025,26.5c-0.014-0.84-0.314-1.514-0.9-2.02
		c-0.587-0.508-1.314-0.761-2.18-0.761c-0.787,0-1.461,0.253-2.021,0.761c-0.561,0.492-0.895,1.166-1,2.02H167.025z"/>
</g>
</svg>
