<?xml version="1.0" encoding="utf-8"?>
<!-- Generator: Adobe Illustrator 16.0.0, SVG Export Plug-In . SVG Version: 6.00 Build 0)  -->
<!DOCTYPE svg PUBLIC "-//W3C//DTD SVG 1.1//EN" "http://www.w3.org/Graphics/SVG/1.1/DTD/svg11.dtd">
<svg version="1.1" id="Layer_1" xmlns="http://www.w3.org/2000/svg" xmlns:xlink="http://www.w3.org/1999/xlink" x="0px" y="0px"
	 width="229px" height="51px" viewBox="0 0 229 51" enable-background="new 0 0 229 51" xml:space="preserve">
<g>
	<path fill="#0A66C2" d="M0,3c0-1.657,1.343-3,3-3h223c1.656,0,3,1.343,3,3v45c0,1.656-1.344,3-3,3H3c-1.657,0-3-1.344-3-3V3z"/>
	<path fill="#FFFFFF" d="M95.779,32.16h4.701V34H93.5V20.1h2.279V32.16z M103.547,21.52c-0.414,0-0.76-0.14-1.04-0.42
		c-0.28-0.279-0.42-0.627-0.42-1.039c0-0.414,0.14-0.761,0.42-1.041c0.28-0.279,0.626-0.42,1.04-0.42c0.4,0,0.74,0.141,1.02,0.42
		c0.281,0.28,0.42,0.627,0.42,1.041c0,0.412-0.139,0.76-0.42,1.039C104.287,21.38,103.947,21.52,103.547,21.52z M104.667,22.98V34
		h-2.28V22.98H104.667z M113.221,22.8c0.866,0,1.639,0.181,2.319,0.54c0.692,0.36,1.233,0.895,1.62,1.6
		c0.387,0.707,0.58,1.561,0.58,2.561V34h-2.26v-6.16c0-0.986-0.248-1.74-0.74-2.26c-0.493-0.533-1.168-0.8-2.02-0.8
		c-0.854,0-1.533,0.267-2.041,0.8c-0.492,0.52-0.74,1.273-0.74,2.26V34h-2.279V22.98h2.279v1.26c0.373-0.454,0.848-0.807,1.42-1.061
		C111.947,22.927,112.566,22.8,113.221,22.8z M125.008,28.5l5.08,5.5h-3.08l-4.08-4.74V34h-2.279V19.2h2.279v8.6l4-4.819h3.16
		L125.008,28.5z M141.822,28.22c0,0.413-0.026,0.787-0.079,1.12h-8.421c0.066,0.88,0.394,1.587,0.98,2.12
		c0.586,0.533,1.307,0.8,2.159,0.8c1.228,0,2.095-0.514,2.601-1.54h2.461c-0.334,1.015-0.94,1.847-1.82,2.5
		c-0.867,0.64-1.947,0.96-3.24,0.96c-1.054,0-2-0.231-2.84-0.699c-0.827-0.479-1.48-1.146-1.96-2c-0.468-0.866-0.7-1.866-0.7-3
		c0-1.133,0.227-2.127,0.68-2.979c0.467-0.867,1.113-1.533,1.94-2c0.84-0.467,1.8-0.7,2.88-0.7c1.04,0,1.967,0.227,2.78,0.68
		s1.446,1.094,1.899,1.92C141.596,26.213,141.822,27.152,141.822,28.22z M139.443,27.5c-0.014-0.84-0.314-1.514-0.9-2.02
		c-0.587-0.508-1.314-0.761-2.18-0.761c-0.787,0-1.461,0.253-2.021,0.761c-0.56,0.492-0.894,1.166-1,2.02H139.443z M143.307,28.439
		c0-1.105,0.228-2.086,0.68-2.939c0.468-0.854,1.095-1.514,1.881-1.98c0.8-0.479,1.688-0.72,2.658-0.72
		c0.722,0,1.429,0.16,2.121,0.48c0.707,0.307,1.268,0.72,1.681,1.239V19.2h2.3V34h-2.3v-1.66c-0.373,0.533-0.894,0.975-1.562,1.32
		c-0.652,0.347-1.406,0.52-2.26,0.52c-0.96,0-1.84-0.24-2.64-0.72c-0.786-0.493-1.413-1.173-1.88-2.04
		C143.533,30.54,143.307,29.547,143.307,28.439z M152.326,28.48c0-0.762-0.16-1.42-0.48-1.98c-0.306-0.561-0.713-0.986-1.22-1.28
		c-0.506-0.293-1.054-0.438-1.64-0.438s-1.133,0.146-1.641,0.438c-0.507,0.28-0.921,0.7-1.24,1.261
		c-0.307,0.547-0.459,1.199-0.459,1.959c0,0.762,0.152,1.429,0.459,2c0.319,0.574,0.733,1.015,1.24,1.32
		c0.521,0.293,1.066,0.44,1.641,0.44c0.586,0,1.134-0.147,1.64-0.44c0.507-0.293,0.914-0.72,1.22-1.279
		C152.166,29.906,152.326,29.24,152.326,28.48z M159.9,20.1V34h-2.279V20.1H159.9z M168.455,22.8c0.865,0,1.641,0.181,2.32,0.54
		c0.691,0.36,1.231,0.895,1.619,1.6c0.387,0.707,0.58,1.561,0.58,2.561V34h-2.261v-6.16c0-0.986-0.247-1.74-0.739-2.26
		c-0.494-0.533-1.166-0.8-2.021-0.8s-1.534,0.267-2.04,0.8c-0.494,0.52-0.74,1.273-0.74,2.26V34h-2.279V22.98h2.279v1.26
		c0.373-0.454,0.848-0.807,1.422-1.061C167.182,22.927,167.801,22.8,168.455,22.8z"/>
	<path fill="#FFFFFF" d="M77.122,15.063H58.759c-0.971,0-1.759,0.789-1.759,1.758V35.18c0,0.971,0.788,1.758,1.759,1.758h18.363
		c0.971,0,1.758-0.787,1.758-1.758V16.82C78.88,15.85,78.092,15.063,77.122,15.063z M77.122,35.188
		C64.874,35.186,58.75,35.182,58.75,35.18c0.002-12.244,0.005-18.367,0.008-18.367c12.247,0.004,18.371,0.006,18.371,0.008
		C77.127,29.064,77.124,35.188,77.122,35.188z M60.244,23.264h3.247v10.439h-3.247V23.264z M61.868,21.835
		c1.037,0,1.882-0.842,1.882-1.881c0-0.247-0.049-0.492-0.143-0.72c-0.095-0.229-0.233-0.437-0.408-0.61
		c-0.175-0.174-0.382-0.313-0.61-0.408c-0.229-0.095-0.473-0.143-0.72-0.143s-0.492,0.048-0.72,0.143
		c-0.229,0.095-0.436,0.233-0.611,0.408c-0.175,0.175-0.313,0.382-0.408,0.61c-0.095,0.228-0.143,0.473-0.143,0.72
		C59.984,20.993,60.826,21.835,61.868,21.835z M68.769,28.537c0-1.361,0.26-2.68,1.947-2.68c1.663,0,1.688,1.557,1.688,2.768v5.078
		h3.244v-5.727c0-2.812-0.607-4.975-3.892-4.975c-1.578,0-2.637,0.867-3.071,1.688H68.64v-1.428h-3.115v10.44h3.244V28.537z"/>
</g>
</svg>
